%YAML 1.1
%TAG !u! tag:unity3d.com,2011:
--- !u!114 &11400000
MonoBehaviour:
  m_ObjectHideFlags: 0
  m_CorrespondingSourceObject: {fileID: 0}
  m_PrefabInstance: {fileID: 0}
  m_PrefabAsset: {fileID: 0}
  m_GameObject: {fileID: 0}
  m_Enabled: 1
  m_EditorHideFlags: 0
  m_Script: {fileID: 11500000, guid: 26ef007cfff64cc8851bdd7819addedf, type: 3}
  m_Name: DE_Human
  m_EditorClassIdentifier: 
  infoType: 0
  characterRace: 7
  characterClass: 12
  description: "In the reckonings of most worlds, humans are the youngest of the
    common races, late to arrive on the world scene and short-lived in comparison
    to dwarves, elves, and dragons. Perhaps it is because of their shorter lives
    that they strive to achieve as much as they can in the years they are given.
    Or maybe they feel they have something to prove to the elder races, and that\u2019s
    why they build their mighty empires on the foundation of conquest and trade.
    Whatever drives them, humans are the innovators, the achievers, and the pioneers
    of the worlds."
  skills: 
  tools: 
