%YAML 1.1
%TAG !u! tag:unity3d.com,2011:
--- !u!114 &11400000
MonoBehaviour:
  m_ObjectHideFlags: 0
  m_CorrespondingSourceObject: {fileID: 0}
  m_PrefabInstance: {fileID: 0}
  m_PrefabAsset: {fileID: 0}
  m_GameObject: {fileID: 0}
  m_Enabled: 1
  m_EditorHideFlags: 0
  m_Script: {fileID: 11500000, guid: 26ef007cfff64cc8851bdd7819addedf, type: 3}
  m_Name: DE_Monk
  m_EditorClassIdentifier: 
  infoType: 1
  characterRace: 0
  characterClass: 6
  description: "Monks make careful study of a magical energy that most monastic traditions
    call ki. This energy is an element of the magic that suffuses the multiverse\u2014specifically,
    the element that flows through living bodies. Monks harness this power within
    themselves to create magical effects and exceed their bodies\u2019 physical capabilities,
    and some of their special attacks can hinder the flow of ki in their opponents.
    Using this energy, monks channel uncanny speed and strength into their unarmed
    strikes. As they gain experience, their martial training and their mastery of
    ki gives them more power over their bodies and the bodies of their foes."
  skills: 
  tools: 
