%YAML 1.1
%TAG !u! tag:unity3d.com,2011:
--- !u!114 &11400000
MonoBehaviour:
  m_ObjectHideFlags: 0
  m_CorrespondingSourceObject: {fileID: 0}
  m_PrefabInstance: {fileID: 0}
  m_PrefabAsset: {fileID: 0}
  m_GameObject: {fileID: 0}
  m_Enabled: 1
  m_EditorHideFlags: 0
  m_Script: {fileID: 11500000, guid: 26ef007cfff64cc8851bdd7819addedf, type: 3}
  m_Name: DE_Paladin
  m_EditorClassIdentifier: 
  infoType: 1
  characterRace: 0
  characterClass: 7
  description: "A warrior whose devotion to their Oath provide magical powers\r\n\r\nRighteous
    warriors on the path of the Paladin must dedicate themselves completely to an
    Oath devoted to certain ideals. These are:\r\n\r\nThe Oath of Devotion for the
    classic Paladin feel. Frequently lawful or the follower of some deity.\r\nThe
    Oath of the Ancients if you want to ease up on the straight lawful good RP. Protectors
    of sacred groves as well as innocents, the Paladins of the Oath of the Ancients
    devote themselves to protecting the Light from the darkness of the world, which
    is a pretty vague mission and gives some room for flexibility.\r\nThe Oath of
    Vengeance is for people who want to go for a more Marvel\u2019s Punisher vibe.
    This Oath is dedicated to the single-minded pursuit of the guilty at the cost
    of all else. Extremely mobile and terrifyingly efficient, Paladins of this Oath
    will never stop pursuing their prey."
  skills: 'Athletics, Insight, Intimidation, Medicine, Persuasion, and Religion  '
  tools: None
