%YAML 1.1
%TAG !u! tag:unity3d.com,2011:
--- !u!114 &11400000
MonoBehaviour:
  m_ObjectHideFlags: 0
  m_CorrespondingSourceObject: {fileID: 0}
  m_PrefabInstance: {fileID: 0}
  m_PrefabAsset: {fileID: 0}
  m_GameObject: {fileID: 0}
  m_Enabled: 1
  m_EditorHideFlags: 0
  m_Script: {fileID: 11500000, guid: fc086ecd130e9fd4aa6930c826588401, type: 3}
  m_Name: Dwarf
  m_EditorClassIdentifier: 
  cardType: 0
  cardImage: {fileID: 21300000, guid: cefc848633c1eb049a37af415cde87c8, type: 3}
  cardName: Dwarf
  cardDescription: 
  race: 1
  currentClass: 0
  classes: 00000000010000000200000003000000050000000800000009000000
