%YAML 1.1
%TAG !u! tag:unity3d.com,2011:
--- !u!114 &11400000
MonoBehaviour:
  m_ObjectHideFlags: 0
  m_CorrespondingSourceObject: {fileID: 0}
  m_PrefabInstance: {fileID: 0}
  m_PrefabAsset: {fileID: 0}
  m_GameObject: {fileID: 0}
  m_Enabled: 1
  m_EditorHideFlags: 0
  m_Script: {fileID: 11500000, guid: fc086ecd130e9fd4aa6930c826588401, type: 3}
  m_Name: Elf
  m_EditorClassIdentifier: 
  cardType: 0
  cardImage: {fileID: 21300000, guid: c2e89d9c3d6b99740bf0954c9bbf157a, type: 3}
  cardName: Elf
  cardDescription: 
  race: 2
  currentClass: 0
  classes: 0200000004000000050000000600000008000000090000000a0000000b000000
