%YAML 1.1
%TAG !u! tag:unity3d.com,2011:
--- !u!114 &11400000
MonoBehaviour:
  m_ObjectHideFlags: 0
  m_CorrespondingSourceObject: {fileID: 0}
  m_PrefabInstance: {fileID: 0}
  m_PrefabAsset: {fileID: 0}
  m_GameObject: {fileID: 0}
  m_Enabled: 1
  m_EditorHideFlags: 0
  m_Script: {fileID: 11500000, guid: fc086ecd130e9fd4aa6930c826588401, type: 3}
  m_Name: Barbarian
  m_EditorClassIdentifier: 
  cardType: 1
  cardImage: {fileID: 21300000, guid: 128edf5b64b7dc342ada492d1b520c9f, type: 3}
  cardDescription: Tank, Melee Damage
  race: 0
  currentClass: 1
  classes: 
